…
For user of the Tidyverse or `data.table`, `read_ebd()` can return tibbles or data.tables, respectively, by using the `setclass` argument.

``` r
library(dplyr)
system.file("extdata/ebd-sample.txt", package="auk") %>% 
  read_ebd(setclass = "tbl")
#> # A tibble: 1,000 × 46
#>                          global_unique_identifier    last_edited_date
#> *                                           <chr>               <chr>
#> 1  URN:CornellLabOfOrnithology:EBIRD:OBS172901271 2012-12-17 11:04:03
#> 2  URN:CornellLabOfOrnithology:EBIRD:OBS118712387 2011-10-04 15:40:47
#> 3  URN:CornellLabOfOrnithology:EBIRD:OBS155256467 2015-08-08 21:02:47
#> 4  URN:CornellLabOfOrnithology:EBIRD:OBS284448755 2016-08-11 09:14:19
#> 5  URN:CornellLabOfOrnithology:EBIRD:OBS420415441 2016-07-27 17:42:10
#> 6  URN:CornellLabOfOrnithology:EBIRD:OBS150662526 2013-11-23 11:07:30
#> 7  URN:CornellLabOfOrnithology:EBIRD:OBS134228541 2011-12-27 20:12:55
#> 8  URN:CornellLabOfOrnithology:EBIRD:OBS118726549 2017-01-12 21:14:23
#> 9  URN:CornellLabOfOrnithology:EBIRD:OBS420402930 2016-07-30 20:30:22
#> 10 URN:CornellLabOfOrnithology:EBIRD:OBS100358984 2014-02-17 17:35:52
#> # ... with 990 more rows, and 44 more variables: taxonomic_order <int>,
#> #   category <chr>, common_name <chr>, scientific_name <chr>,
#> #   subspecies_common_name <chr>, subspecies_scientific_name <chr>,
#> #   observation_count <chr>, breeding_bird_atlas_code <chr>,
#> #   age_sex <chr>, country <chr>, country_code <chr>, state <chr>,
#> #   state_code <chr>, county <chr>, county_code <chr>, iba_code <chr>,
#> #   bcr_code <int>, usfws_code <chr>, atlas_block <lgl>, locality <chr>,
#> #   locality_id <chr>, locality_type <chr>, latitude <dbl>,
#> #   longitude <dbl>, observation_date <chr>,
…
